^C:\USERS\VISUAL.SENSOR\APPDATA\LOCAL\TEMP\.NETFRAMEWORK,VERSION=V4.0.ASSEMBLYATTRIBUTES.CPP
D:\BACKUPZHARIF\ASISTENSI DOSEN\PUPT TAHUN 2 (2016)\PROGRAM\CITRADARAH\CITRADARAH\X64\RELEASE\VC140.PDB
D:\BACKUPZHARIF\ASISTENSI DOSEN\PUPT TAHUN 2 (2016)\PROGRAM\CITRADARAH\CITRADARAH\X64\RELEASE\.NETFRAMEWORK,VERSION=V4.0.ASSEMBLYATTRIBUTES.OBJ
D:\BACKUPZHARIF\ASISTENSI DOSEN\PUPT TAHUN 2 (2016)\PROGRAM\CITRADARAH\CITRADARAH\X64\RELEASE\.NETFRAMEWORK,VERSION=V4.0.ASSEMBLYATTRIBUTES.ASM
^D:\BACKUPZHARIF\ASISTENSI DOSEN\PUPT TAHUN 2 (2016)\PROGRAM\CITRADARAH\CITRADARAH\MYFORM.CPP
D:\BACKUPZHARIF\ASISTENSI DOSEN\PUPT TAHUN 2 (2016)\PROGRAM\CITRADARAH\CITRADARAH\X64\RELEASE\VC140.PDB
D:\BACKUPZHARIF\ASISTENSI DOSEN\PUPT TAHUN 2 (2016)\PROGRAM\CITRADARAH\CITRADARAH\X64\RELEASE\MYFORM.OBJ
^D:\BACKUPZHARIF\ASISTENSI DOSEN\PUPT TAHUN 2 (2016)\PROGRAM\CITRADARAH\CITRADARAH\PROSESCITRA.CPP
D:\BACKUPZHARIF\ASISTENSI DOSEN\PUPT TAHUN 2 (2016)\PROGRAM\CITRADARAH\CITRADARAH\X64\RELEASE\VC140.PDB
D:\BACKUPZHARIF\ASISTENSI DOSEN\PUPT TAHUN 2 (2016)\PROGRAM\CITRADARAH\CITRADARAH\X64\RELEASE\PROSESCITRA.OBJ
